ext,ext_abbr,home,home_abbr,date
Northern Illinois Huskies,NIU,TCU Horned Frogs,TCU,2006-12-19
BYU Cougars,BYU,Oregon Ducks,ORE,2006-12-21
Rice Owls,RICE,Troy Trojans,TROY,2006-12-22
South Florida Bulls,USF,East Carolina Pirates,ECU,2006-12-23
New Mexico Lobos,UNM,San Jose State Spartans,SJSU,2006-12-23
Tulsa Golden Hurricane,TLSA,Utah Utes,UTAH,2006-12-23
Arizona State Sun Devils,ASU,Hawai'i Rainbow Warriors,HAW,2006-12-24
Middle Tennessee Blue Raiders,MTSU,Central Michigan Chippewas,CMU,2006-12-26
Florida State Seminoles,FSU,UCLA Bruins,UCLA,2006-12-27
Rutgers Scarlet Knights,RUTG,Kansas State Wildcats,KSU,2006-12-28
Texas A&M Aggies,TA&M,California Golden Bears,CAL,2006-12-28
Oklahoma State Cowboys,OKST,Alabama Crimson Tide,ALA,2006-12-28
Oregon State Beavers,ORST,Missouri Tigers,MIZ,2006-12-29
Clemson Tigers,CLEM,Kentucky Wildcats,UK,2006-12-29
Houston Cougars,HOU,South Carolina Gamecocks,SC,2006-12-29
Texas Tech Red Raiders,TTU,Minnesota Golden Gophers,MINN,2006-12-29
Purdue Boilermakers,PUR,Maryland Terrapins,MD,2006-12-29
Georgia Bulldogs,UGA,Virginia Tech Hokies,VT,2006-12-30
Texas Longhorns,TEX,Iowa Hawkeyes,IOWA,2006-12-30
Navy Midshipmen,NAVY,Boston College Eagles,BC,2006-12-30
Miami Hurricanes,MIAMI,Nevada Wolf Pack,NEV,2006-12-31
USC Trojans,USC,Michigan Wolverines,MICH,2006-01-01
Arkansas Razorbacks,ARK,Wisconsin Badgers,WIS,2006-01-01
Boise State Broncos,BSU,Oklahoma Sooners,OKLA,2006-01-01
Auburn Tigers,AUB,Nebraska Cornhuskers,NEB,2006-01-01
Georgia Tech Yellow Jackets,GT,West Virginia Mountaineers,WVU,2006-01-01
Tennessee Volunteers,TENN,Penn State Nittany Lions,PSU,2006-01-01
Louisville Cardinals,LOU,Wake Forest Demon Deacons,WAKE,2006-01-02
Notre Dame Fighting Irish,ND,LSU Tigers,LSU,2006-01-03
Western Michigan Broncos,WMU,Cincinnati Bearcats,CIN,2006-01-06
Ohio Bobcats,OHIO,Southern Mississippi Golden Eagles,USM,2006-01-07
Florida Gators,FLA,Ohio State Buckeyes,OSU,2006-01-08
Northern Arizona Lumberjacks,NAU,Arizona State Sun Devils,ASU,2006-08-31
Boston College Eagles,BC,Central Michigan Chippewas,CMU,2006-08-31
Stephen F Austin Lumberjacks,SFA,Tulsa Golden Hurricane,TLSA,2006-08-31
Temple Owls,TEM,Buffalo Bulls,BUFF,2006-08-31
Florida Intl Golden Panthers,FIU,Middle Tennessee Blue Raiders,MTSU,2006-08-31
Eastern Michigan Eagles,EMU,Ball State Cardinals,BALL,2006-08-31
Northwestern Wildcats,NW,Miami (OH) RedHawks,M-OH,2006-08-31
Rhode Island Rams,URI,Connecticut Huskies,CONN,2006-08-31
Minnesota Golden Gophers,MINN,Kent State Golden Flashes,KENT,2006-08-31
Toledo Rockets,TOL,Iowa State Cyclones,ISU,2006-08-31
South Carolina Gamecocks,SC,Mississippi State Bulldogs,MSST,2006-08-31
Alcorn State Braves,ALCN,Louisiana Monroe Warhawks,ULM,2006-08-31
Sacramento State Hornets,SAC,Boise State Broncos,BSU,2006-08-31
Southeastern Louisiana Lions,SELA,New Mexico State Aggies,NMSU,2006-08-31
Eastern Washington Eagles,EWU,Oregon State Beavers,ORST,2006-08-31
UTEP Miners,UTEP,San Diego State Aztecs,SDSU,2006-08-31
Nevada Wolf Pack,NEV,Fresno State Bulldogs,FRES,2006-09-01
Northern Illinois Huskies,NIU,Ohio State Buckeyes,OSU,2006-09-02
Notre Dame Fighting Irish,ND,Georgia Tech Yellow Jackets,GT,2006-09-02
North Texas Mean Green,UNT,Texas Longhorns,TEX,2006-09-02
Washington State Cougars,WSU,Auburn Tigers,AUB,2006-09-02
Marshall Thundering Herd,MRSH,West Virginia Mountaineers,WVU,2006-09-02
USC Trojans,USC,Arkansas Razorbacks,ARK,2006-09-02
Southern Mississippi Golden Eagles,USM,Florida Gators,FLA,2006-09-02
Louisiana Ragin' Cajuns,ULL,LSU Tigers,LSU,2006-09-02
California Golden Bears,CAL,Tennessee Volunteers,TENN,2006-09-02
UAB Blazers,UAB,Oklahoma Sooners,OKLA,2006-09-02
Vanderbilt Commodores,VAN,Michigan Wolverines,MICH,2006-09-02
Western Kentucky Hilltoppers,WKU,Georgia Bulldogs,UGA,2006-09-02
Montana Grizzlies,MONT,Iowa Hawkeyes,IOWA,2006-09-02
Northeastern Huskies,NE,Virginia Tech Hokies,VT,2006-09-02
Florida Atlantic Owls,FAU,Clemson Tigers,CLEM,2006-09-02
Akron Zips,AKR,Penn State Nittany Lions,PSU,2006-09-02
Louisiana Tech Bulldogs,LT,Nebraska Cornhuskers,NEB,2006-09-02
Stanford Cardinal,STAN,Oregon Ducks,ORE,2006-09-02
SMU Mustangs,SMU,Texas Tech Red Raiders,TTU,2006-09-02
Idaho Vandals,IDHO,Michigan State Spartans,MSU,2006-09-02
Indiana State Sycamores,INST,Purdue Boilermakers,PUR,2006-09-02
San Jose State Spartans,SJSU,Washington Huskies,WASH,2006-09-02
Rutgers Scarlet Knights,RUTG,North Carolina Tar Heels,UNC,2006-09-02
Montana State Bobcats,MTST,Colorado Buffaloes,COLO,2006-09-02
Utah State Aggies,USU,Wyoming Cowboys,WYO,2006-09-02
Weber State Wildcats,WEB,Colorado State Rams,CSU,2006-09-02
East Carolina Pirates,ECU,Navy Midshipmen,NAVY,2006-09-02
Villanova Wildcats,NOVA,UCF Knights,UCF,2006-09-02
Richmond Spiders,RICH,Duke Blue Devils,DUKE,2006-09-02
Appalachian State Mountaineers,APP,NC State Wolfpack,NCST,2006-09-02
Western Michigan Broncos,WMU,Indiana Hoosiers,IND,2006-09-02
William & Mary Tribe,W&M,Maryland Terrapins,MD,2006-09-02
Syracuse Orange,SYR,Wake Forest Demon Deacons,WAKE,2006-09-02
Tennessee-Martin Skyhawks,UTM,Ohio Bobcats,OHIO,2006-09-02
Missouri State Bears,MOST,Oklahoma State Cowboys,OKST,2006-09-02
Wisconsin Badgers,WIS,Bowling Green Falcons,BGSU,2006-09-02
Virginia Cavaliers,UVA,Pittsburgh Panthers,PITT,2006-09-02
Northwestern State Demons,NWST,Kansas Jayhawks,KU,2006-09-02
Hawai'i Rainbow Warriors,HAW,Alabama Crimson Tide,ALA,2006-09-02
Eastern Illinois Panthers,EIU,Illinois Fighting Illini,ILL,2006-09-02
Alabama State Hornets,ALST,Troy Trojans,TROY,2006-09-02
The Citadel Bulldogs,CIT,Texas A&M Aggies,TA&M,2006-09-02
Murray State Racers,MURR,Missouri Tigers,MIZ,2006-09-02
McNeese State Cowboys,MCNS,South Florida Bulls,USF,2006-09-02
Utah Utes,UTAH,UCLA Bruins,UCLA,2006-09-02
Army Black Knights,ARMY,Arkansas State Red Wolves,ARST,2006-09-02
Illinois State Redbirds,ILST,Kansas State Wildcats,KSU,2006-09-02
Eastern Kentucky Colonels,EKY,Cincinnati Bearcats,CIN,2006-09-02
Portland State Vikings,PRST,New Mexico Lobos,UNM,2006-09-02
Houston Cougars,HOU,Rice Owls,RICE,2006-09-02
Idaho State Bengals,IDST,UNLV Rebels,UNLV,2006-09-02
BYU Cougars,BYU,Arizona Wildcats,ARIZ,2006-09-02
Kentucky Wildcats,UK,Louisville Cardinals,LOU,2006-09-03
TCU Horned Frogs,TCU,Baylor Bears,BAY,2006-09-03
Memphis Tigers,MEM,Ole Miss Rebels,MISS,2006-09-03
Florida State Seminoles,FSU,Miami Hurricanes,MIAMI,2006-09-04
UAB Blazers,UAB,SMU Mustangs,SMU,2006-10-31
Fresno State Bulldogs,FRES,Boise State Broncos,BSU,2006-11-01
West Virginia Mountaineers,WVU,Louisville Cardinals,LOU,2006-11-02
Air Force Falcons,AFA,Army Black Knights,ARMY,2006-11-03
Ohio State Buckeyes,OSU,Illinois Fighting Illini,ILL,2006-11-04
Ball State Cardinals,BALL,Michigan Wolverines,MICH,2006-11-04
Oklahoma State Cowboys,OKST,Texas Longhorns,TEX,2006-11-04
Arkansas State Red Wolves,ARST,Auburn Tigers,AUB,2006-11-04
Florida Gators,FLA,Vanderbilt Commodores,VAN,2006-11-04
LSU Tigers,LSU,Tennessee Volunteers,TENN,2006-11-04
USC Trojans,USC,Stanford Cardinal,STAN,2006-11-04
UCLA Bruins,UCLA,California Golden Bears,CAL,2006-11-04
North Carolina Tar Heels,UNC,Notre Dame Fighting Irish,ND,2006-11-04
Arkansas Razorbacks,ARK,South Carolina Gamecocks,SC,2006-11-04
Boston College Eagles,BC,Wake Forest Demon Deacons,WAKE,2006-11-04
Penn State Nittany Lions,PSU,Wisconsin Badgers,WIS,2006-11-04
Oklahoma Sooners,OKLA,Texas A&M Aggies,TA&M,2006-11-04
Maryland Terrapins,MD,Clemson Tigers,CLEM,2006-11-04
Georgia Tech Yellow Jackets,GT,NC State Wolfpack,NCST,2006-11-04
Virginia Tech Hokies,VT,Miami Hurricanes,MIAMI,2006-11-04
Washington Huskies,WASH,Oregon Ducks,ORE,2006-11-04
Arizona Wildcats,ARIZ,Washington State Cougars,WSU,2006-11-04
Virginia Cavaliers,UVA,Florida State Seminoles,FSU,2006-11-04
Pittsburgh Panthers,PITT,South Florida Bulls,USF,2006-11-04
Indiana Hoosiers,IND,Minnesota Golden Gophers,MINN,2006-11-04
Missouri Tigers,MIZ,Nebraska Cornhuskers,NEB,2006-11-04
Baylor Bears,BAY,Texas Tech Red Raiders,TTU,2006-11-04
Northwestern Wildcats,NW,Iowa Hawkeyes,IOWA,2006-11-04
Mississippi State Bulldogs,MSST,Alabama Crimson Tide,ALA,2006-11-04
Bowling Green Falcons,BGSU,Akron Zips,AKR,2006-11-04
Kent State Golden Flashes,KENT,Buffalo Bulls,BUFF,2006-11-04
Central Michigan Chippewas,CMU,Temple Owls,TEM,2006-11-04
Navy Midshipmen,NAVY,Duke Blue Devils,DUKE,2006-11-04
Georgia Bulldogs,UGA,Kentucky Wildcats,UK,2006-11-04
Ohio Bobcats,OHIO,Eastern Michigan Eagles,EMU,2006-11-04
Northwestern State Demons,NWST,Ole Miss Rebels,MISS,2006-11-04
Kansas Jayhawks,KU,Iowa State Cyclones,ISU,2006-11-04
Hawai'i Rainbow Warriors,HAW,Utah State Aggies,USU,2006-11-04
TCU Horned Frogs,TCU,UNLV Rebels,UNLV,2006-11-04
San Diego State Aztecs,SDSU,Wyoming Cowboys,WYO,2006-11-04
Florida Atlantic Owls,FAU,Middle Tennessee Blue Raiders,MTSU,2006-11-04
Miami (OH) RedHawks,M-OH,Western Michigan Broncos,WMU,2006-11-04
Tulsa Golden Hurricane,TLSA,Houston Cougars,HOU,2006-11-04
Purdue Boilermakers,PUR,Michigan State Spartans,MSU,2006-11-04
Kansas State Wildcats,KSU,Colorado Buffaloes,COLO,2006-11-04
East Carolina Pirates,ECU,UCF Knights,UCF,2006-11-04
Louisiana Ragin' Cajuns,ULL,Troy Trojans,TROY,2006-11-04
Arizona State Sun Devils,ASU,Oregon State Beavers,ORST,2006-11-04
Nevada Wolf Pack,NEV,Idaho Vandals,IDHO,2006-11-04
BYU Cougars,BYU,Colorado State Rams,CSU,2006-11-04
Louisiana Tech Bulldogs,LT,North Texas Mean Green,UNT,2006-11-04
Tulane Green Wave,TULN,Marshall Thundering Herd,MRSH,2006-11-04
San Jose State Spartans,SJSU,New Mexico State Aggies,NMSU,2006-11-04
Rice Owls,RICE,UTEP Miners,UTEP,2006-11-04
Southern Mississippi Golden Eagles,USM,Memphis Tigers,MEM,2006-11-05
Toledo Rockets,TOL,Northern Illinois Huskies,NIU,2006-11-07
Louisville Cardinals,LOU,Rutgers Scarlet Knights,RUTG,2006-11-09
Wyoming Cowboys,WYO,BYU Cougars,BYU,2006-11-09
Buffalo Bulls,BUFF,Akron Zips,AKR,2006-11-09
Western Michigan Broncos,WMU,Central Michigan Chippewas,CMU,2006-11-10
UTEP Miners,UTEP,UAB Blazers,UAB,2006-11-10
Ohio State Buckeyes,OSU,Northwestern Wildcats,NW,2006-11-11
Michigan Wolverines,MICH,Indiana Hoosiers,IND,2006-11-11
Texas Longhorns,TEX,Kansas State Wildcats,KSU,2006-11-11
Georgia Bulldogs,UGA,Auburn Tigers,AUB,2006-11-11
South Carolina Gamecocks,SC,Florida Gators,FLA,2006-11-11
Oregon Ducks,ORE,USC Trojans,USC,2006-11-11
California Golden Bears,CAL,Arizona Wildcats,ARIZ,2006-11-11
Notre Dame Fighting Irish,ND,Air Force Falcons,AFA,2006-11-11
Cincinnati Bearcats,CIN,West Virginia Mountaineers,WVU,2006-11-11
Tennessee Volunteers,TENN,Arkansas Razorbacks,ARK,2006-11-11
Alabama Crimson Tide,ALA,LSU Tigers,LSU,2006-11-11
Boise State Broncos,BSU,San Jose State Spartans,SJSU,2006-11-11
Wisconsin Badgers,WIS,Iowa Hawkeyes,IOWA,2006-11-11
Texas Tech Red Raiders,TTU,Oklahoma Sooners,OKLA,2006-11-11
Wake Forest Demon Deacons,WAKE,Florida State Seminoles,FSU,2006-11-11
Georgia Tech Yellow Jackets,GT,North Carolina Tar Heels,UNC,2006-11-11
Kent State Golden Flashes,KENT,Virginia Tech Hokies,VT,2006-11-11
Duke Blue Devils,DUKE,Boston College Eagles,BC,2006-11-11
Miami Hurricanes,MIAMI,Maryland Terrapins,MD,2006-11-11
Nebraska Cornhuskers,NEB,Texas A&M Aggies,TA&M,2006-11-11
Syracuse Orange,SYR,South Florida Bulls,USF,2006-11-11
Minnesota Golden Gophers,MINN,Michigan State Spartans,MSU,2006-11-11
NC State Wolfpack,NCST,Clemson Tigers,CLEM,2006-11-11
Purdue Boilermakers,PUR,Illinois Fighting Illini,ILL,2006-11-11
Baylor Bears,BAY,Oklahoma State Cowboys,OKST,2006-11-11
Marshall Thundering Herd,MRSH,East Carolina Pirates,ECU,2006-11-11
Vanderbilt Commodores,VAN,Kentucky Wildcats,UK,2006-11-11
Navy Midshipmen,NAVY,Eastern Michigan Eagles,EMU,2006-11-11
Southern Mississippi Golden Eagles,USM,Tulane Green Wave,TULN,2006-11-11
Colorado State Rams,CSU,Utah Utes,UTAH,2006-11-11
Houston Cougars,HOU,SMU Mustangs,SMU,2006-11-11
Rice Owls,RICE,Tulsa Golden Hurricane,TLSA,2006-11-11
Iowa State Cyclones,ISU,Colorado Buffaloes,COLO,2006-11-11
Pittsburgh Panthers,PITT,Connecticut Huskies,CONN,2006-11-11
Temple Owls,TEM,Penn State Nittany Lions,PSU,2006-11-11
Stanford Cardinal,STAN,Washington Huskies,WASH,2006-11-11
Utah State Aggies,USU,Nevada Wolf Pack,NEV,2006-11-11
Troy Trojans,TROY,Florida Atlantic Owls,FAU,2006-11-11
Middle Tennessee Blue Raiders,MTSU,Arkansas State Red Wolves,ARST,2006-11-11
New Mexico State Aggies,NMSU,Fresno State Bulldogs,FRES,2006-11-11
North Texas Mean Green,UNT,Louisiana Ragin' Cajuns,ULL,2006-11-11
TCU Horned Frogs,TCU,New Mexico Lobos,UNM,2006-11-11
Oregon State Beavers,ORST,UCLA Bruins,UCLA,2006-11-11
Louisiana Monroe Warhawks,ULM,Florida Intl Golden Panthers,FIU,2006-11-11
UCF Knights,UCF,Memphis Tigers,MEM,2006-11-11
UNLV Rebels,UNLV,San Diego State Aztecs,SDSU,2006-11-11
Washington State Cougars,WSU,Arizona State Sun Devils,ASU,2006-11-11
Louisiana Tech Bulldogs,LT,Hawai'i Rainbow Warriors,HAW,2006-11-11
Ball State Cardinals,BALL,Toledo Rockets,TOL,2006-11-14
Miami (OH) RedHawks,M-OH,Bowling Green Falcons,BGSU,2006-11-15
West Virginia Mountaineers,WVU,Pittsburgh Panthers,PITT,2006-11-16
Akron Zips,AKR,Ohio Bobcats,OHIO,2006-11-16
Eastern Michigan Eagles,EMU,Kent State Golden Flashes,KENT,2006-11-17
Central Michigan Chippewas,CMU,Northern Illinois Huskies,NIU,2006-11-17
Michigan Wolverines,MICH,Ohio State Buckeyes,OSU,2006-11-18
Western Carolina Catamounts,WCU,Florida Gators,FLA,2006-11-18
California Golden Bears,CAL,USC Trojans,USC,2006-11-18
Arkansas Razorbacks,ARK,Mississippi State Bulldogs,MSST,2006-11-18
Army Black Knights,ARMY,Notre Dame Fighting Irish,ND,2006-11-18
Rutgers Scarlet Knights,RUTG,Cincinnati Bearcats,CIN,2006-11-18
Ole Miss Rebels,MISS,LSU Tigers,LSU,2006-11-18
South Florida Bulls,USF,Louisville Cardinals,LOU,2006-11-18
Buffalo Bulls,BUFF,Wisconsin Badgers,WIS,2006-11-18
Utah State Aggies,USU,Boise State Broncos,BSU,2006-11-18
Virginia Tech Hokies,VT,Wake Forest Demon Deacons,WAKE,2006-11-18
Auburn Tigers,AUB,Alabama Crimson Tide,ALA,2006-11-18
Oklahoma Sooners,OKLA,Baylor Bears,BAY,2006-11-18
Duke Blue Devils,DUKE,Georgia Tech Yellow Jackets,GT,2006-11-18
Maryland Terrapins,MD,Boston College Eagles,BC,2006-11-18
Tennessee Volunteers,TENN,Vanderbilt Commodores,VAN,2006-11-18
New Mexico Lobos,UNM,BYU Cougars,BYU,2006-11-18
Iowa Hawkeyes,IOWA,Minnesota Golden Gophers,MINN,2006-11-18
NC State Wolfpack,NCST,North Carolina Tar Heels,UNC,2006-11-18
Connecticut Huskies,CONN,Syracuse Orange,SYR,2006-11-18
Michigan State Spartans,MSU,Penn State Nittany Lions,PSU,2006-11-18
Miami Hurricanes,MIAMI,Virginia Cavaliers,UVA,2006-11-18
Indiana Hoosiers,IND,Purdue Boilermakers,PUR,2006-11-18
Middle Tennessee Blue Raiders,MTSU,South Carolina Gamecocks,SC,2006-11-18
Temple Owls,TEM,Navy Midshipmen,NAVY,2006-11-18
Louisiana Monroe Warhawks,ULM,Kentucky Wildcats,UK,2006-11-18
Illinois Fighting Illini,ILL,Northwestern Wildcats,NW,2006-11-18
Missouri Tigers,MIZ,Iowa State Cyclones,ISU,2006-11-18
Western Michigan Broncos,WMU,Florida State Seminoles,FSU,2006-11-18
Houston Cougars,HOU,Memphis Tigers,MEM,2006-11-18
Oklahoma State Cowboys,OKST,Texas Tech Red Raiders,TTU,2006-11-18
UCF Knights,UCF,Tulane Green Wave,TULN,2006-11-18
East Carolina Pirates,ECU,Rice Owls,RICE,2006-11-18
Tulsa Golden Hurricane,TLSA,SMU Mustangs,SMU,2006-11-18
Kansas State Wildcats,KSU,Kansas Jayhawks,KU,2006-11-18
Arizona Wildcats,ARIZ,Oregon Ducks,ORE,2006-11-18
Oregon State Beavers,ORST,Stanford Cardinal,STAN,2006-11-18
Wyoming Cowboys,WYO,UNLV Rebels,UNLV,2006-11-18
San Diego State Aztecs,SDSU,TCU Horned Frogs,TCU,2006-11-18
UTEP Miners,UTEP,Marshall Thundering Herd,MRSH,2006-11-18
Idaho Vandals,IDHO,Fresno State Bulldogs,FRES,2006-11-18
Louisiana Ragin' Cajuns,ULL,Florida Intl Golden Panthers,FIU,2006-11-18
Washington Huskies,WASH,Washington State Cougars,WSU,2006-11-18
Florida Atlantic Owls,FAU,North Texas Mean Green,UNT,2006-11-18
Arkansas State Red Wolves,ARST,Troy Trojans,TROY,2006-11-18
Utah Utes,UTAH,Air Force Falcons,AFA,2006-11-18
Nevada Wolf Pack,NEV,Louisiana Tech Bulldogs,LT,2006-11-18
UAB Blazers,UAB,Southern Mississippi Golden Eagles,USM,2006-11-18
UCLA Bruins,UCLA,Arizona State Sun Devils,ASU,2006-11-18
San Jose State Spartans,SJSU,Hawai'i Rainbow Warriors,HAW,2006-11-18
Bowling Green Falcons,BGSU,Toledo Rockets,TOL,2006-11-21
Boston College Eagles,BC,Miami Hurricanes,MIAMI,2006-11-23
LSU Tigers,LSU,Arkansas Razorbacks,ARK,2006-11-24
Texas A&M Aggies,TA&M,Texas Longhorns,TEX,2006-11-24
Colorado Buffaloes,COLO,Nebraska Cornhuskers,NEB,2006-11-24
Northern Illinois Huskies,NIU,Eastern Michigan Eagles,EMU,2006-11-24
Kent State Golden Flashes,KENT,Ball State Cardinals,BALL,2006-11-24
Ohio Bobcats,OHIO,Miami (OH) RedHawks,M-OH,2006-11-24
Central Michigan Chippewas,CMU,Buffalo Bulls,BUFF,2006-11-24
Tulane Green Wave,TULN,Tulsa Golden Hurricane,TLSA,2006-11-24
Oregon Ducks,ORE,Oregon State Beavers,ORST,2006-11-24
Western Michigan Broncos,WMU,Akron Zips,AKR,2006-11-24
Air Force Falcons,AFA,UNLV Rebels,UNLV,2006-11-24
Fresno State Bulldogs,FRES,Louisiana Tech Bulldogs,LT,2006-11-24
Notre Dame Fighting Irish,ND,USC Trojans,USC,2006-11-25
Florida Gators,FLA,Florida State Seminoles,FSU,2006-11-25
South Florida Bulls,USF,West Virginia Mountaineers,WVU,2006-11-25
Louisville Cardinals,LOU,Pittsburgh Panthers,PITT,2006-11-25
Boise State Broncos,BSU,Nevada Wolf Pack,NEV,2006-11-25
Oklahoma Sooners,OKLA,Oklahoma State Cowboys,OKST,2006-11-25
Syracuse Orange,SYR,Rutgers Scarlet Knights,RUTG,2006-11-25
Georgia Tech Yellow Jackets,GT,Georgia Bulldogs,UGA,2006-11-25
Virginia Cavaliers,UVA,Virginia Tech Hokies,VT,2006-11-25
Kentucky Wildcats,UK,Tennessee Volunteers,TENN,2006-11-25
Wake Forest Demon Deacons,WAKE,Maryland Terrapins,MD,2006-11-25
BYU Cougars,BYU,Utah Utes,UTAH,2006-11-25
South Carolina Gamecocks,SC,Clemson Tigers,CLEM,2006-11-25
Purdue Boilermakers,PUR,Hawai'i Rainbow Warriors,HAW,2006-11-25
Cincinnati Bearcats,CIN,Connecticut Huskies,CONN,2006-11-25
Kansas Jayhawks,KU,Missouri Tigers,MIZ,2006-11-25
North Carolina Tar Heels,UNC,Duke Blue Devils,DUKE,2006-11-25
UAB Blazers,UAB,UCF Knights,UCF,2006-11-25
Mississippi State Bulldogs,MSST,Ole Miss Rebels,MISS,2006-11-25
San Diego State Aztecs,SDSU,New Mexico Lobos,UNM,2006-11-25
SMU Mustangs,SMU,Rice Owls,RICE,2006-11-25
New Mexico State Aggies,NMSU,Utah State Aggies,USU,2006-11-25
Troy Trojans,TROY,Middle Tennessee Blue Raiders,MTSU,2006-11-25
Arkansas State Red Wolves,ARST,Louisiana Ragin' Cajuns,ULL,2006-11-25
San Jose State Spartans,SJSU,Idaho Vandals,IDHO,2006-11-25
Arizona State Sun Devils,ASU,Arizona Wildcats,ARIZ,2006-11-25
East Carolina Pirates,ECU,NC State Wolfpack,NCST,2006-11-25
North Texas Mean Green,UNT,Louisiana Monroe Warhawks,ULM,2006-11-25
TCU Horned Frogs,TCU,Colorado State Rams,CSU,2006-11-25
Florida Intl Golden Panthers,FIU,Florida Atlantic Owls,FAU,2006-11-25
Marshall Thundering Herd,MRSH,Southern Mississippi Golden Eagles,USM,2006-11-25
Memphis Tigers,MEM,UTEP Miners,UTEP,2006-11-25
Central Michigan Chippewas,CMU,Ohio Bobcats,OHIO,2006-11-30
Southern Mississippi Golden Eagles,USM,Houston Cougars,HOU,2006-12-01
USC Trojans,USC,UCLA Bruins,UCLA,2006-12-02
Arkansas Razorbacks,ARK,Florida Gators,FLA,2006-12-02
Connecticut Huskies,CONN,Louisville Cardinals,LOU,2006-12-02
Nebraska Cornhuskers,NEB,Oklahoma Sooners,OKLA,2006-12-02
Rutgers Scarlet Knights,RUTG,West Virginia Mountaineers,WVU,2006-12-02
Wake Forest Demon Deacons,WAKE,Georgia Tech Yellow Jackets,GT,2006-12-02
Stanford Cardinal,STAN,California Golden Bears,CAL,2006-12-02
Oregon State Beavers,ORST,Hawai'i Rainbow Warriors,HAW,2006-12-02
Army Black Knights,ARMY,Navy Midshipmen,NAVY,2006-12-02
Louisiana Tech Bulldogs,LT,New Mexico State Aggies,NMSU,2006-12-02
Air Force Falcons,AFA,TCU Horned Frogs,TCU,2006-12-02
Fresno State Bulldogs,FRES,San Jose State Spartans,SJSU,2006-12-02
Louisiana Monroe Warhawks,ULM,Louisiana Ragin' Cajuns,ULL,2006-12-02
Troy Trojans,TROY,Florida Intl Golden Panthers,FIU,2006-12-02
Colorado State Rams,CSU,San Diego State Aztecs,SDSU,2006-12-02
Oregon State Beavers,ORST,Boise State Broncos,BSU,2006-09-07
Pittsburgh Panthers,PITT,Cincinnati Bearcats,CIN,2006-09-08
Ohio State Buckeyes,OSU,Texas Longhorns,TEX,2006-09-09
Auburn Tigers,AUB,Mississippi State Bulldogs,MSST,2006-09-09
Penn State Nittany Lions,PSU,Notre Dame Fighting Irish,ND,2006-09-09
Eastern Washington Eagles,EWU,West Virginia Mountaineers,WVU,2006-09-09
UCF Knights,UCF,Florida Gators,FLA,2006-09-09
Arizona Wildcats,ARIZ,LSU Tigers,LSU,2006-09-09
Troy Trojans,TROY,Florida State Seminoles,FSU,2006-09-09
Central Michigan Chippewas,CMU,Michigan Wolverines,MICH,2006-09-09
Air Force Falcons,AFA,Tennessee Volunteers,TENN,2006-09-09
Georgia Bulldogs,UGA,South Carolina Gamecocks,SC,2006-09-09
Louisville Cardinals,LOU,Temple Owls,TEM,2006-09-09
Iowa Hawkeyes,IOWA,Syracuse Orange,SYR,2006-09-09
Washington Huskies,WASH,Oklahoma Sooners,OKLA,2006-09-09
Virginia Tech Hokies,VT,North Carolina Tar Heels,UNC,2006-09-09
Florida A&M Rattlers,FAMU,Miami Hurricanes,MIAMI,2006-09-09
Clemson Tigers,CLEM,Boston College Eagles,BC,2006-09-09
Oregon Ducks,ORE,Fresno State Bulldogs,FRES,2006-09-09
Nicholls State Colonels,NICH,Nebraska Cornhuskers,NEB,2006-09-09
Minnesota Golden Gophers,MINN,California Golden Bears,CAL,2006-09-09
UC Davis Aggies,UCD,TCU Horned Frogs,TCU,2006-09-09
Texas Tech Red Raiders,TTU,UTEP Miners,UTEP,2006-09-09
Nevada Wolf Pack,NEV,Arizona State Sun Devils,ASU,2006-09-09
Akron Zips,AKR,NC State Wolfpack,NCST,2006-09-09
Duke Blue Devils,DUKE,Wake Forest Demon Deacons,WAKE,2006-09-09
Illinois Fighting Illini,ILL,Rutgers Scarlet Knights,RUTG,2006-09-09
Ole Miss Rebels,MISS,Missouri Tigers,MIZ,2006-09-09
Kent State Golden Flashes,KENT,Army Black Knights,ARMY,2006-09-09
Miami (OH) RedHawks,M-OH,Purdue Boilermakers,PUR,2006-09-09
UMass Minutemen,UMASS,Navy Midshipmen,NAVY,2006-09-09
New Hampshire Wildcats,UNH,Northwestern Wildcats,NW,2006-09-09
Buffalo Bulls,BUFF,Bowling Green Falcons,BGSU,2006-09-09
Ohio Bobcats,OHIO,Northern Illinois Huskies,NIU,2006-09-09
Vanderbilt Commodores,VAN,Alabama Crimson Tide,ALA,2006-09-09
Western Illinois Leathernecks,WIU,Wisconsin Badgers,WIS,2006-09-09
Wyoming Cowboys,WYO,Virginia Cavaliers,UVA,2006-09-09
Eastern Michigan Eagles,EMU,Michigan State Spartans,MSU,2006-09-09
Samford Bulldogs,SAM,Georgia Tech Yellow Jackets,GT,2006-09-09
Idaho Vandals,IDHO,Washington State Cougars,WSU,2006-09-09
Tulsa Golden Hurricane,TLSA,BYU Cougars,BYU,2006-09-09
Hofstra Pride,HOF,Marshall Thundering Herd,MRSH,2006-09-09
Colorado Buffaloes,COLO,Colorado State Rams,CSU,2006-09-09
Stanford Cardinal,STAN,San Jose State Spartans,SJSU,2006-09-09
Texas State Bobcats,TXST,Kentucky Wildcats,UK,2006-09-09
Middle Tennessee Blue Raiders,MTSU,Maryland Terrapins,MD,2006-09-09
Indiana Hoosiers,IND,Ball State Cardinals,BALL,2006-09-09
Louisiana Monroe Warhawks,ULM,Kansas Jayhawks,KU,2006-09-09
Northwestern State Demons,NWST,Baylor Bears,BAY,2006-09-09
Louisiana Ragin' Cajuns,ULL,Texas A&M Aggies,TA&M,2006-09-09
Tulane Green Wave,TULN,Houston Cougars,HOU,2006-09-09
SMU Mustangs,SMU,North Texas Mean Green,UNT,2006-09-09
Southeastern Louisiana Lions,SELA,Southern Mississippi Golden Eagles,USM,2006-09-09
Toledo Rockets,TOL,Western Michigan Broncos,WMU,2006-09-09
UNLV Rebels,UNLV,Iowa State Cyclones,ISU,2006-09-09
Florida Intl Golden Panthers,FIU,South Florida Bulls,USF,2006-09-09
East Carolina Pirates,ECU,UAB Blazers,UAB,2006-09-09
Utah State Aggies,USU,Arkansas Razorbacks,ARK,2006-09-09
Oklahoma State Cowboys,OKST,Arkansas State Red Wolves,ARST,2006-09-09
Florida Atlantic Owls,FAU,Kansas State Wildcats,KSU,2006-09-09
Northern Arizona Lumberjacks,NAU,Utah Utes,UTAH,2006-09-09
New Mexico Lobos,UNM,New Mexico State Aggies,NMSU,2006-09-09
Chattanooga Mocs,CHAT,Memphis Tigers,MEM,2006-09-09
Rice Owls,RICE,UCLA Bruins,UCLA,2006-09-09
Maryland Terrapins,MD,West Virginia Mountaineers,WVU,2006-09-14
Tennessee Tech Golden Eagles,TNTC,Middle Tennessee Blue Raiders,MTSU,2006-09-14
Kansas Jayhawks,KU,Toledo Rockets,TOL,2006-09-15
Cincinnati Bearcats,CIN,Ohio State Buckeyes,OSU,2006-09-16
Michigan Wolverines,MICH,Notre Dame Fighting Irish,ND,2006-09-16
LSU Tigers,LSU,Auburn Tigers,AUB,2006-09-16
Nebraska Cornhuskers,NEB,USC Trojans,USC,2006-09-16
Florida Gators,FLA,Tennessee Volunteers,TENN,2006-09-16
Texas Longhorns,TEX,Rice Owls,RICE,2006-09-16
Clemson Tigers,CLEM,Florida State Seminoles,FSU,2006-09-16
UAB Blazers,UAB,Georgia Bulldogs,UGA,2006-09-16
Miami Hurricanes,MIAMI,Louisville Cardinals,LOU,2006-09-16
Duke Blue Devils,DUKE,Virginia Tech Hokies,VT,2006-09-16
Oklahoma Sooners,OKLA,Oregon Ducks,ORE,2006-09-16
Iowa State Cyclones,ISU,Iowa Hawkeyes,IOWA,2006-09-16
Texas Tech Red Raiders,TTU,TCU Horned Frogs,TCU,2006-09-16
Portland State Vikings,PRST,California Golden Bears,CAL,2006-09-16
Arizona State Sun Devils,ASU,Colorado Buffaloes,COLO,2006-09-16
BYU Cougars,BYU,Boston College Eagles,BC,2006-09-16
Youngstown State Penguins,YSU,Penn State Nittany Lions,PSU,2006-09-16
Wake Forest Demon Deacons,WAKE,Connecticut Huskies,CONN,2006-09-16
Michigan State Spartans,MSU,Pittsburgh Panthers,PITT,2006-09-16
Syracuse Orange,SYR,Illinois Fighting Illini,ILL,2006-09-16
Marshall Thundering Herd,MRSH,Kansas State Wildcats,KSU,2006-09-16
Arkansas Razorbacks,ARK,Vanderbilt Commodores,VAN,2006-09-16
Akron Zips,AKR,Central Michigan Chippewas,CMU,2006-09-16
Ball State Cardinals,BALL,Purdue Boilermakers,PUR,2006-09-16
Troy Trojans,TROY,Georgia Tech Yellow Jackets,GT,2006-09-16
Temple Owls,TEM,Minnesota Golden Gophers,MINN,2006-09-16
Kent State Golden Flashes,KENT,Miami (OH) RedHawks,M-OH,2006-09-16
Eastern Michigan Eagles,EMU,Northwestern Wildcats,NW,2006-09-16
South Florida Bulls,USF,UCF Knights,UCF,2006-09-16
Western Michigan Broncos,WMU,Virginia Cavaliers,UVA,2006-09-16
San Diego State Aztecs,SDSU,Wisconsin Badgers,WIS,2006-09-16
Boise State Broncos,BSU,Wyoming Cowboys,WYO,2006-09-16
Ohio Bobcats,OHIO,Rutgers Scarlet Knights,RUTG,2006-09-16
Southern Illinois Salukis,SIU,Indiana Hoosiers,IND,2006-09-16
Idaho State Bengals,IDST,Idaho Vandals,IDHO,2006-09-16
Baylor Bears,BAY,Washington State Cougars,WSU,2006-09-16
Bowling Green Falcons,BGSU,Florida Intl Golden Panthers,FIU,2006-09-16
Ole Miss Rebels,MISS,Kentucky Wildcats,UK,2006-09-16
Fresno State Bulldogs,FRES,Washington Huskies,WASH,2006-09-16
Grambling State Tigers,GRAM,Houston Cougars,HOU,2006-09-16
Nicholls State Colonels,NICH,Louisiana Tech Bulldogs,LT,2006-09-16
NC State Wolfpack,NCST,Southern Mississippi Golden Eagles,USM,2006-09-16
Wofford Terriers,WOF,South Carolina Gamecocks,SC,2006-09-16
Tulane Green Wave,TULN,Mississippi State Bulldogs,MSST,2006-09-16
Florida Atlantic Owls,FAU,Oklahoma State Cowboys,OKST,2006-09-16
North Texas Mean Green,UNT,Tulsa Golden Hurricane,TLSA,2006-09-16
Memphis Tigers,MEM,East Carolina Pirates,ECU,2006-09-16
Furman Paladins,FUR,North Carolina Tar Heels,UNC,2006-09-16
Louisiana Monroe Warhawks,ULM,Alabama Crimson Tide,ALA,2006-09-16
Buffalo Bulls,BUFF,Northern Illinois Huskies,NIU,2006-09-16
Texas Southern Tigers,TXSO,New Mexico State Aggies,NMSU,2006-09-16
Missouri Tigers,MIZ,New Mexico Lobos,UNM,2006-09-16
Sam Houston State Bearkats,SHSU,SMU Mustangs,SMU,2006-09-16
Utah Utes,UTAH,Utah State Aggies,USU,2006-09-16
Colorado State Rams,CSU,Nevada Wolf Pack,NEV,2006-09-16
Army Black Knights,ARMY,Texas A&M Aggies,TA&M,2006-09-16
Stephen F Austin Lumberjacks,SFA,Arizona Wildcats,ARIZ,2006-09-16
Navy Midshipmen,NAVY,Stanford Cardinal,STAN,2006-09-16
Virginia Cavaliers,UVA,Georgia Tech Yellow Jackets,GT,2006-09-21
Northwestern Wildcats,NW,Nevada Wolf Pack,NEV,2006-09-22
Penn State Nittany Lions,PSU,Ohio State Buckeyes,OSU,2006-09-23
Buffalo Bulls,BUFF,Auburn Tigers,AUB,2006-09-23
USC Trojans,USC,Arizona Wildcats,ARIZ,2006-09-23
West Virginia Mountaineers,WVU,East Carolina Pirates,ECU,2006-09-23
Kentucky Wildcats,UK,Florida Gators,FLA,2006-09-23
Wisconsin Badgers,WIS,Michigan Wolverines,MICH,2006-09-23
Iowa State Cyclones,ISU,Texas Longhorns,TEX,2006-09-23
Louisville Cardinals,LOU,Kansas State Wildcats,KSU,2006-09-23
Colorado Buffaloes,COLO,Georgia Bulldogs,UGA,2006-09-23
Tulane Green Wave,TULN,LSU Tigers,LSU,2006-09-23
Cincinnati Bearcats,CIN,Virginia Tech Hokies,VT,2006-09-23
Notre Dame Fighting Irish,ND,Michigan State Spartans,MSU,2006-09-23
Iowa Hawkeyes,IOWA,Illinois Fighting Illini,ILL,2006-09-23
Marshall Thundering Herd,MRSH,Tennessee Volunteers,TENN,2006-09-23
Middle Tennessee Blue Raiders,MTSU,Oklahoma Sooners,OKLA,2006-09-23
Rice Owls,RICE,Florida State Seminoles,FSU,2006-09-23
North Carolina Tar Heels,UNC,Clemson Tigers,CLEM,2006-09-23
Boston College Eagles,BC,NC State Wolfpack,NCST,2006-09-23
Arizona State Sun Devils,ASU,California Golden Bears,CAL,2006-09-23
Troy Trojans,TROY,Nebraska Cornhuskers,NEB,2006-09-23
Hawai'i Rainbow Warriors,HAW,Boise State Broncos,BSU,2006-09-23
Minnesota Golden Gophers,MINN,Purdue Boilermakers,PUR,2006-09-23
Kent State Golden Flashes,KENT,Bowling Green Falcons,BGSU,2006-09-23
The Citadel Bulldogs,CIT,Pittsburgh Panthers,PITT,2006-09-23
Tulsa Golden Hurricane,TLSA,Navy Midshipmen,NAVY,2006-09-23
Howard Bison,HOW,Rutgers Scarlet Knights,RUTG,2006-09-23
Ohio Bobcats,OHIO,Missouri Tigers,MIZ,2006-09-23
Utah State Aggies,USU,BYU Cougars,BYU,2006-09-23
Indiana State Sycamores,INST,Northern Illinois Huskies,NIU,2006-09-23
Central Michigan Chippewas,CMU,Eastern Michigan Eagles,EMU,2006-09-23
Alabama Crimson Tide,ALA,Arkansas Razorbacks,ARK,2006-09-23
Connecticut Huskies,CONN,Indiana Hoosiers,IND,2006-09-23
Air Force Falcons,AFA,Wyoming Cowboys,WYO,2006-09-23
UTEP Miners,UTEP,New Mexico Lobos,UNM,2006-09-23
Washington State Cougars,WSU,Stanford Cardinal,STAN,2006-09-23
North Carolina A&T Aggies,NCAT,Louisiana Ragin' Cajuns,ULL,2006-09-23
North Texas Mean Green,UNT,Akron Zips,AKR,2006-09-23
Cal Poly Mustangs,CP,San Jose State Spartans,SJSU,2006-09-23
Florida Intl Golden Panthers,FIU,Maryland Terrapins,MD,2006-09-23
Wake Forest Demon Deacons,WAKE,Ole Miss Rebels,MISS,2006-09-23
North Dakota State Bison,NDSU,Ball State Cardinals,BALL,2006-09-23
South Florida Bulls,USF,Kansas Jayhawks,KU,2006-09-23
UCLA Bruins,UCLA,Washington Huskies,WASH,2006-09-23
Southeastern Louisiana Lions,SELA,Texas Tech Red Raiders,TTU,2006-09-23
McNeese State Cowboys,MCNS,Toledo Rockets,TOL,2006-09-23
Temple Owls,TEM,Western Michigan Broncos,WMU,2006-09-23
Florida Atlantic Owls,FAU,South Carolina Gamecocks,SC,2006-09-23
Miami (OH) RedHawks,M-OH,Syracuse Orange,SYR,2006-09-23
Tennessee State Tigers,TNST,Vanderbilt Commodores,VAN,2006-09-23
Army Black Knights,ARMY,Baylor Bears,BAY,2006-09-23
Louisiana Tech Bulldogs,LT,Texas A&M Aggies,TA&M,2006-09-23
Mississippi State Bulldogs,MSST,UAB Blazers,UAB,2006-09-23
Utah Utes,UTAH,San Diego State Aztecs,SDSU,2006-09-23
Arkansas State Red Wolves,ARST,SMU Mustangs,SMU,2006-09-23
Oklahoma State Cowboys,OKST,Houston Cougars,HOU,2006-09-23
Idaho Vandals,IDHO,Oregon State Beavers,ORST,2006-09-23
Southern Mississippi Golden Eagles,USM,UCF Knights,UCF,2006-09-26
Auburn Tigers,AUB,South Carolina Gamecocks,SC,2006-09-28
BYU Cougars,BYU,TCU Horned Frogs,TCU,2006-09-28
Rutgers Scarlet Knights,RUTG,South Florida Bulls,USF,2006-09-29
Ohio State Buckeyes,OSU,Iowa Hawkeyes,IOWA,2006-09-30
USC Trojans,USC,Washington State Cougars,WSU,2006-09-30
Alabama Crimson Tide,ALA,Florida Gators,FLA,2006-09-30
Michigan Wolverines,MICH,Minnesota Golden Gophers,MINN,2006-09-30
Sam Houston State Bearkats,SHSU,Texas Longhorns,TEX,2006-09-30
Mississippi State Bulldogs,MSST,LSU Tigers,LSU,2006-09-30
Georgia Bulldogs,UGA,Ole Miss Rebels,MISS,2006-09-30
Georgia Tech Yellow Jackets,GT,Virginia Tech Hokies,VT,2006-09-30
Purdue Boilermakers,PUR,Notre Dame Fighting Irish,ND,2006-09-30
Oregon Ducks,ORE,Arizona State Sun Devils,ASU,2006-09-30
Tennessee Volunteers,TENN,Memphis Tigers,MEM,2006-09-30
Louisiana Tech Bulldogs,LT,Clemson Tigers,CLEM,2006-09-30
California Golden Bears,CAL,Oregon State Beavers,ORST,2006-09-30
Kansas Jayhawks,KU,Nebraska Cornhuskers,NEB,2006-09-30
Boise State Broncos,BSU,Utah Utes,UTAH,2006-09-30
Colorado Buffaloes,COLO,Missouri Tigers,MIZ,2006-09-30
Navy Midshipmen,NAVY,Connecticut Huskies,CONN,2006-09-30
Wisconsin Badgers,WIS,Indiana Hoosiers,IND,2006-09-30
Illinois Fighting Illini,ILL,Michigan State Spartans,MSU,2006-09-30
Virginia Cavaliers,UVA,Duke Blue Devils,DUKE,2006-09-30
Toledo Rockets,TOL,Pittsburgh Panthers,PITT,2006-09-30
Maine Black Bears,MAINE,Boston College Eagles,BC,2006-09-30
Wyoming Cowboys,WYO,Syracuse Orange,SYR,2006-09-30
Bowling Green Falcons,BGSU,Ohio Bobcats,OHIO,2006-09-30
New Mexico Lobos,UNM,Air Force Falcons,AFA,2006-09-30
Akron Zips,AKR,Kent State Golden Flashes,KENT,2006-09-30
Idaho Vandals,IDHO,Utah State Aggies,USU,2006-09-30
Rice Owls,RICE,Army Black Knights,ARMY,2006-09-30
Northwestern Wildcats,NW,Penn State Nittany Lions,PSU,2006-09-30
Miami (OH) RedHawks,M-OH,Cincinnati Bearcats,CIN,2006-09-30
Texas Tech Red Raiders,TTU,Texas A&M Aggies,TA&M,2006-09-30
Liberty Flames,LIB,Wake Forest Demon Deacons,WAKE,2006-09-30
Eastern Michigan Eagles,EMU,Louisiana Ragin' Cajuns,ULL,2006-09-30
Arkansas State Red Wolves,ARST,Florida Intl Golden Panthers,FIU,2006-09-30
Houston Cougars,HOU,Miami Hurricanes,MIAMI,2006-09-30
San Diego State Aztecs,SDSU,San Jose State Spartans,SJSU,2006-09-30
Central Michigan Chippewas,CMU,Kentucky Wildcats,UK,2006-09-30
Northern Illinois Huskies,NIU,Ball State Cardinals,BALL,2006-09-30
Florida Atlantic Owls,FAU,Louisiana Monroe Warhawks,ULM,2006-09-30
Northern Iowa Panthers,UNI,Iowa State Cyclones,ISU,2006-09-30
Troy Trojans,TROY,UAB Blazers,UAB,2006-09-30
Middle Tennessee Blue Raiders,MTSU,North Texas Mean Green,UNT,2006-09-30
Temple Owls,TEM,Vanderbilt Commodores,VAN,2006-09-30
Kansas State Wildcats,KSU,Baylor Bears,BAY,2006-09-30
SMU Mustangs,SMU,Tulane Green Wave,TULN,2006-09-30
New Mexico State Aggies,NMSU,UTEP Miners,UTEP,2006-09-30
Nevada Wolf Pack,NEV,UNLV Rebels,UNLV,2006-09-30
Colorado State Rams,CSU,Fresno State Bulldogs,FRES,2006-09-30
Washington Huskies,WASH,Arizona Wildcats,ARIZ,2006-09-30
Stanford Cardinal,STAN,UCLA Bruins,UCLA,2006-09-30
Southern Mississippi Golden Eagles,USM,Tulsa Golden Hurricane,TLSA,2006-10-03
UCF Knights,UCF,Marshall Thundering Herd,MRSH,2006-10-04
Florida State Seminoles,FSU,NC State Wolfpack,NCST,2006-10-05
TCU Horned Frogs,TCU,Utah Utes,UTAH,2006-10-05
Louisville Cardinals,LOU,Middle Tennessee Blue Raiders,MTSU,2006-10-06
Bowling Green Falcons,BGSU,Ohio State Buckeyes,OSU,2006-10-07
Arkansas Razorbacks,ARK,Auburn Tigers,AUB,2006-10-07
Washington Huskies,WASH,USC Trojans,USC,2006-10-07
West Virginia Mountaineers,WVU,Mississippi State Bulldogs,MSST,2006-10-07
LSU Tigers,LSU,Florida Gators,FLA,2006-10-07
Michigan State Spartans,MSU,Michigan Wolverines,MICH,2006-10-07
Texas Longhorns,TEX,Oklahoma Sooners,OKLA,2006-10-07
Tennessee Volunteers,TENN,Georgia Bulldogs,UGA,2006-10-07
Oregon Ducks,ORE,California Golden Bears,CAL,2006-10-07
Stanford Cardinal,STAN,Notre Dame Fighting Irish,ND,2006-10-07
Clemson Tigers,CLEM,Wake Forest Demon Deacons,WAKE,2006-10-07
Maryland Terrapins,MD,Georgia Tech Yellow Jackets,GT,2006-10-07
Purdue Boilermakers,PUR,Iowa Hawkeyes,IOWA,2006-10-07
Louisiana Tech Bulldogs,LT,Boise State Broncos,BSU,2006-10-07
Nebraska Cornhuskers,NEB,Iowa State Cyclones,ISU,2006-10-07
Missouri Tigers,MIZ,Texas Tech Red Raiders,TTU,2006-10-07
Penn State Nittany Lions,PSU,Minnesota Golden Gophers,MINN,2006-10-07
Pittsburgh Panthers,PITT,Syracuse Orange,SYR,2006-10-07
Western Michigan Broncos,WMU,Ohio Bobcats,OHIO,2006-10-07
Northwestern Wildcats,NW,Wisconsin Badgers,WIS,2006-10-07
Indiana Hoosiers,IND,Illinois Fighting Illini,ILL,2006-10-07
Texas A&M Aggies,TA&M,Kansas Jayhawks,KU,2006-10-07
North Carolina Tar Heels,UNC,Miami Hurricanes,MIAMI,2006-10-07
Ball State Cardinals,BALL,Buffalo Bulls,BUFF,2006-10-07
VMI Keydets,VMI,Army Black Knights,ARMY,2006-10-07
Kent State Golden Flashes,KENT,Temple Owls,TEM,2006-10-07
San Diego State Aztecs,SDSU,BYU Cougars,BYU,2006-10-07
Vanderbilt Commodores,VAN,Ole Miss Rebels,MISS,2006-10-07
Navy Midshipmen,NAVY,Air Force Falcons,AFA,2006-10-07
Rice Owls,RICE,Tulane Green Wave,TULN,2006-10-07
Baylor Bears,BAY,Colorado Buffaloes,COLO,2006-10-07
Akron Zips,AKR,Cincinnati Bearcats,CIN,2006-10-07
Oklahoma State Cowboys,OKST,Kansas State Wildcats,KSU,2006-10-07
New Mexico State Aggies,NMSU,Idaho Vandals,IDHO,2006-10-07
UNLV Rebels,UNLV,Colorado State Rams,CSU,2006-10-07
Virginia Cavaliers,UVA,East Carolina Pirates,ECU,2006-10-07
Arizona Wildcats,ARIZ,UCLA Bruins,UCLA,2006-10-07
South Carolina Gamecocks,SC,Kentucky Wildcats,UK,2006-10-07
Louisiana Ragin' Cajuns,ULL,Houston Cougars,HOU,2006-10-07
Florida Intl Golden Panthers,FIU,North Texas Mean Green,UNT,2006-10-07
Washington State Cougars,WSU,Oregon State Beavers,ORST,2006-10-07
Connecticut Huskies,CONN,South Florida Bulls,USF,2006-10-07
Memphis Tigers,MEM,UAB Blazers,UAB,2006-10-07
Central Michigan Chippewas,CMU,Toledo Rockets,TOL,2006-10-07
Louisiana Monroe Warhawks,ULM,Arkansas State Red Wolves,ARST,2006-10-07
Duke Blue Devils,DUKE,Alabama Crimson Tide,ALA,2006-10-07
Wyoming Cowboys,WYO,New Mexico Lobos,UNM,2006-10-07
Fresno State Bulldogs,FRES,Utah State Aggies,USU,2006-10-07
SMU Mustangs,SMU,UTEP Miners,UTEP,2006-10-07
Northern Illinois Huskies,NIU,Miami (OH) RedHawks,M-OH,2006-10-08
Clemson Tigers,CLEM,Temple Owls,TEM,2006-10-12
Virginia Tech Hokies,VT,Boston College Eagles,BC,2006-10-12
Southern Utah Thunderbirds,SUU,Florida Atlantic Owls,FAU,2006-10-12
Colorado State Rams,CSU,Air Force Falcons,AFA,2006-10-12
Pittsburgh Panthers,PITT,UCF Knights,UCF,2006-10-13
Ohio State Buckeyes,OSU,Michigan State Spartans,MSU,2006-10-14
Florida Gators,FLA,Auburn Tigers,AUB,2006-10-14
Arizona State Sun Devils,ASU,USC Trojans,USC,2006-10-14
Michigan Wolverines,MICH,Penn State Nittany Lions,PSU,2006-10-14
Syracuse Orange,SYR,West Virginia Mountaineers,WVU,2006-10-14
Baylor Bears,BAY,Texas Longhorns,TEX,2006-10-14
Cincinnati Bearcats,CIN,Louisville Cardinals,LOU,2006-10-14
California Golden Bears,CAL,Washington State Cougars,WSU,2006-10-14
Kentucky Wildcats,UK,LSU Tigers,LSU,2006-10-14
Iowa Hawkeyes,IOWA,Indiana Hoosiers,IND,2006-10-14
Vanderbilt Commodores,VAN,Georgia Bulldogs,UGA,2006-10-14
Southeast Missouri State Redhawks,SEMO,Arkansas Razorbacks,ARK,2006-10-14
UCLA Bruins,UCLA,Oregon Ducks,ORE,2006-10-14
Missouri Tigers,MIZ,Texas A&M Aggies,TA&M,2006-10-14
Nebraska Cornhuskers,NEB,Kansas State Wildcats,KSU,2006-10-14
Iowa State Cyclones,ISU,Oklahoma Sooners,OKLA,2006-10-14
Rutgers Scarlet Knights,RUTG,Navy Midshipmen,NAVY,2006-10-14
Minnesota Golden Gophers,MINN,Wisconsin Badgers,WIS,2006-10-14
Purdue Boilermakers,PUR,Northwestern Wildcats,NW,2006-10-14
Army Black Knights,ARMY,Connecticut Huskies,CONN,2006-10-14
Wake Forest Demon Deacons,WAKE,NC State Wolfpack,NCST,2006-10-14
South Florida Bulls,USF,North Carolina Tar Heels,UNC,2006-10-14
Florida State Seminoles,FSU,Duke Blue Devils,DUKE,2006-10-14
Miami (OH) RedHawks,M-OH,Buffalo Bulls,BUFF,2006-10-14
Ball State Cardinals,BALL,Central Michigan Chippewas,CMU,2006-10-14
Northern Illinois Huskies,NIU,Western Michigan Broncos,WMU,2006-10-14
Oklahoma State Cowboys,OKST,Kansas Jayhawks,KU,2006-10-14
Arkansas State Red Wolves,ARST,Memphis Tigers,MEM,2006-10-14
Jacksonville State Gamecocks,JVST,Mississippi State Bulldogs,MSST,2006-10-14
Utah Utes,UTAH,Wyoming Cowboys,WYO,2006-10-14
Marshall Thundering Herd,MRSH,SMU Mustangs,SMU,2006-10-14
Tulsa Golden Hurricane,TLSA,East Carolina Pirates,ECU,2006-10-14
Ole Miss Rebels,MISS,Alabama Crimson Tide,ALA,2006-10-14
Maryland Terrapins,MD,Virginia Cavaliers,UVA,2006-10-14
Texas Tech Red Raiders,TTU,Colorado Buffaloes,COLO,2006-10-14
Louisiana Monroe Warhawks,ULM,Troy Trojans,TROY,2006-10-14
Toledo Rockets,TOL,Kent State Golden Flashes,KENT,2006-10-14
Eastern Michigan Eagles,EMU,Bowling Green Falcons,BGSU,2006-10-14
Hawai'i Rainbow Warriors,HAW,Fresno State Bulldogs,FRES,2006-10-14
Arizona Wildcats,ARIZ,Stanford Cardinal,STAN,2006-10-14
Utah State Aggies,USU,San Jose State Spartans,SJSU,2006-10-14
Oregon State Beavers,ORST,Washington Huskies,WASH,2006-10-14
Idaho Vandals,IDHO,Louisiana Tech Bulldogs,LT,2006-10-14
Florida Intl Golden Panthers,FIU,Miami Hurricanes,MIAMI,2006-10-14
Ohio Bobcats,OHIO,Illinois Fighting Illini,ILL,2006-10-14
Houston Cougars,HOU,Southern Mississippi Golden Eagles,USM,2006-10-14
UAB Blazers,UAB,Rice Owls,RICE,2006-10-14
Tulane Green Wave,TULN,UTEP Miners,UTEP,2006-10-14
New Mexico Lobos,UNM,UNLV Rebels,UNLV,2006-10-14
Boise State Broncos,BSU,New Mexico State Aggies,NMSU,2006-10-15
Louisiana Ragin' Cajuns,ULL,Florida Atlantic Owls,FAU,2006-10-18
North Carolina Tar Heels,UNC,Virginia Cavaliers,UVA,2006-10-19
Bowling Green Falcons,BGSU,Central Michigan Chippewas,CMU,2006-10-19
Utah Utes,UTAH,New Mexico Lobos,UNM,2006-10-19
West Virginia Mountaineers,WVU,Connecticut Huskies,CONN,2006-10-20
Indiana Hoosiers,IND,Ohio State Buckeyes,OSU,2006-10-21
Iowa Hawkeyes,IOWA,Michigan Wolverines,MICH,2006-10-21
Texas Longhorns,TEX,Nebraska Cornhuskers,NEB,2006-10-21
Louisville Cardinals,LOU,Syracuse Orange,SYR,2006-10-21
Alabama Crimson Tide,ALA,Tennessee Volunteers,TENN,2006-10-21
Tulane Green Wave,TULN,Auburn Tigers,AUB,2006-10-21
UCLA Bruins,UCLA,Notre Dame Fighting Irish,ND,2006-10-21
Washington Huskies,WASH,California Golden Bears,CAL,2006-10-21
Georgia Tech Yellow Jackets,GT,Clemson Tigers,CLEM,2006-10-21
Fresno State Bulldogs,FRES,LSU Tigers,LSU,2006-10-21
Ole Miss Rebels,MISS,Arkansas Razorbacks,ARK,2006-10-21
Oregon Ducks,ORE,Washington State Cougars,WSU,2006-10-21
Boise State Broncos,BSU,Idaho Vandals,IDHO,2006-10-21
Rutgers Scarlet Knights,RUTG,Pittsburgh Panthers,PITT,2006-10-21
Colorado Buffaloes,COLO,Oklahoma Sooners,OKLA,2006-10-21
Wisconsin Badgers,WIS,Purdue Boilermakers,PUR,2006-10-21
Boston College Eagles,BC,Florida State Seminoles,FSU,2006-10-21
Texas A&M Aggies,TA&M,Oklahoma State Cowboys,OKST,2006-10-21
Kansas State Wildcats,KSU,Missouri Tigers,MIZ,2006-10-21
Michigan State Spartans,MSU,Northwestern Wildcats,NW,2006-10-21
NC State Wolfpack,NCST,Maryland Terrapins,MD,2006-10-21
Illinois Fighting Illini,ILL,Penn State Nittany Lions,PSU,2006-10-21
Mississippi State Bulldogs,MSST,Georgia Bulldogs,UGA,2006-10-21
Miami Hurricanes,MIAMI,Duke Blue Devils,DUKE,2006-10-21
Buffalo Bulls,BUFF,Ohio Bobcats,OHIO,2006-10-21
Western Michigan Broncos,WMU,Ball State Cardinals,BALL,2006-10-21
SMU Mustangs,SMU,East Carolina Pirates,ECU,2006-10-21
South Carolina Gamecocks,SC,Vanderbilt Commodores,VAN,2006-10-21
UNLV Rebels,UNLV,BYU Cougars,BYU,2006-10-21
Toledo Rockets,TOL,Eastern Michigan Eagles,EMU,2006-10-21
Kansas Jayhawks,KU,Baylor Bears,BAY,2006-10-21
Temple Owls,TEM,Northern Illinois Huskies,NIU,2006-10-21
TCU Horned Frogs,TCU,Army Black Knights,ARMY,2006-10-21
North Dakota State Bison,NDSU,Minnesota Golden Gophers,MINN,2006-10-21
Stanford Cardinal,STAN,Arizona State Sun Devils,ASU,2006-10-21
Texas Tech Red Raiders,TTU,Iowa State Cyclones,ISU,2006-10-21
Colorado State Rams,CSU,Wyoming Cowboys,WYO,2006-10-21
Rice Owls,RICE,UCF Knights,UCF,2006-10-21
Miami (OH) RedHawks,M-OH,Akron Zips,AKR,2006-10-21
UTEP Miners,UTEP,Houston Cougars,HOU,2006-10-21
Southern Mississippi Golden Eagles,USM,Virginia Tech Hokies,VT,2006-10-21
Utah State Aggies,USU,Louisiana Tech Bulldogs,LT,2006-10-21
Middle Tennessee Blue Raiders,MTSU,Louisiana Monroe Warhawks,ULM,2006-10-21
San Jose State Spartans,SJSU,Nevada Wolf Pack,NEV,2006-10-21
Oregon State Beavers,ORST,Arizona Wildcats,ARIZ,2006-10-21
Marshall Thundering Herd,MRSH,UAB Blazers,UAB,2006-10-21
North Texas Mean Green,UNT,Arkansas State Red Wolves,ARST,2006-10-21
Tulsa Golden Hurricane,TLSA,Memphis Tigers,MEM,2006-10-21
Hawai'i Rainbow Warriors,HAW,New Mexico State Aggies,NMSU,2006-10-21
Air Force Falcons,AFA,San Diego State Aztecs,SDSU,2006-10-21
South Florida Bulls,USF,Cincinnati Bearcats,CIN,2006-10-22
Clemson Tigers,CLEM,Virginia Tech Hokies,VT,2006-10-26
UTEP Miners,UTEP,Tulsa Golden Hurricane,TLSA,2006-10-27
Minnesota Golden Gophers,MINN,Ohio State Buckeyes,OSU,2006-10-28
Northwestern Wildcats,NW,Michigan Wolverines,MICH,2006-10-28
USC Trojans,USC,Oregon State Beavers,ORST,2006-10-28
Texas Longhorns,TEX,Texas Tech Red Raiders,TTU,2006-10-28
Auburn Tigers,AUB,Ole Miss Rebels,MISS,2006-10-28
Tennessee Volunteers,TENN,South Carolina Gamecocks,SC,2006-10-28
Florida Gators,FLA,Georgia Bulldogs,UGA,2006-10-28
Notre Dame Fighting Irish,ND,Navy Midshipmen,NAVY,2006-10-28
Arkansas Razorbacks,ARK,Louisiana Monroe Warhawks,ULM,2006-10-28
Illinois Fighting Illini,ILL,Wisconsin Badgers,WIS,2006-10-28
Buffalo Bulls,BUFF,Boston College Eagles,BC,2006-10-28
Oklahoma Sooners,OKLA,Missouri Tigers,MIZ,2006-10-28
Nebraska Cornhuskers,NEB,Oklahoma State Cowboys,OKST,2006-10-28
Miami Hurricanes,MIAMI,Georgia Tech Yellow Jackets,GT,2006-10-28
Texas A&M Aggies,TA&M,Baylor Bears,BAY,2006-10-28
Wake Forest Demon Deacons,WAKE,North Carolina Tar Heels,UNC,2006-10-28
Portland State Vikings,PRST,Oregon Ducks,ORE,2006-10-28
Michigan State Spartans,MSU,Indiana Hoosiers,IND,2006-10-28
NC State Wolfpack,NCST,Virginia Cavaliers,UVA,2006-10-28
Syracuse Orange,SYR,Cincinnati Bearcats,CIN,2006-10-28
Penn State Nittany Lions,PSU,Purdue Boilermakers,PUR,2006-10-28
Northern Illinois Huskies,NIU,Iowa Hawkeyes,IOWA,2006-10-28
Vanderbilt Commodores,VAN,Duke Blue Devils,DUKE,2006-10-28
Bowling Green Falcons,BGSU,Temple Owls,TEM,2006-10-28
BYU Cougars,BYU,Air Force Falcons,AFA,2006-10-28
Ball State Cardinals,BALL,Miami (OH) RedHawks,M-OH,2006-10-28
Colorado Buffaloes,COLO,Kansas Jayhawks,KU,2006-10-28
Ohio Bobcats,OHIO,Kent State Golden Flashes,KENT,2006-10-28
Army Black Knights,ARMY,Tulane Green Wave,TULN,2006-10-28
Kentucky Wildcats,UK,Mississippi State Bulldogs,MSST,2006-10-28
Florida Intl Golden Panthers,FIU,Alabama Crimson Tide,ALA,2006-10-28
UCF Knights,UCF,Houston Cougars,HOU,2006-10-28
Eastern Michigan Eagles,EMU,Western Michigan Broncos,WMU,2006-10-28
North Texas Mean Green,UNT,Troy Trojans,TROY,2006-10-28
Iowa State Cyclones,ISU,Kansas State Wildcats,KSU,2006-10-28
New Mexico State Aggies,NMSU,Nevada Wolf Pack,NEV,2006-10-28
UNLV Rebels,UNLV,Utah Utes,UTAH,2006-10-28
Arkansas State Red Wolves,ARST,Florida Atlantic Owls,FAU,2006-10-28
Memphis Tigers,MEM,Marshall Thundering Herd,MRSH,2006-10-28
Middle Tennessee Blue Raiders,MTSU,Louisiana Ragin' Cajuns,ULL,2006-10-28
New Mexico Lobos,UNM,Colorado State Rams,CSU,2006-10-28
Louisiana Tech Bulldogs,LT,San Jose State Spartans,SJSU,2006-10-28
Washington State Cougars,WSU,UCLA Bruins,UCLA,2006-10-28
Arizona State Sun Devils,ASU,Washington Huskies,WASH,2006-10-28
Florida State Seminoles,FSU,Maryland Terrapins,MD,2006-10-28
Akron Zips,AKR,Toledo Rockets,TOL,2006-10-28
Wyoming Cowboys,WYO,TCU Horned Frogs,TCU,2006-10-28
East Carolina Pirates,ECU,Southern Mississippi Golden Eagles,USM,2006-10-28
Cal Poly Mustangs,CP,San Diego State Aztecs,SDSU,2006-10-28
Connecticut Huskies,CONN,Rutgers Scarlet Knights,RUTG,2006-10-29
